[
 {
 "name":"Company",
 "language":"english",
 "path":"/dic/Company.txt",
 "local":true
 },
 {
 "name":"Product",
 "language":"english",
 "path":"/dic/Product.txt",
 "local":true
 },
 {
 "name":"Technology",
 "language":"english",
 "path":"/dic/Technology.txt",
 "local":true
 }
]
